ex1/simulation/qsim/ex1.msim.vcd
$comment
	File created using the following command:
		vcd file ex1.msim.vcd -direction
$end
$date
	Wed May 22 18:53:06 2019
$end
$version
	ModelSim Version 10.1d
$end
$timescale
	1ps
$end
$scope module ex1_vlg_vec_tst $end
$var reg 1 ! clk $end
$var reg 1 " dec $end
$var reg 1 # inc $end
$var wire 1 $ debug_out [31] $end
$var wire 1 % debug_out [30] $end
$var wire 1 & debug_out [29] $end
$var wire 1 ' debug_out [28] $end
$var wire 1 ( debug_out [27] $end
$var wire 1 ) debug_out [26] $end
$var wire 1 * debug_out [25] $end
$var wire 1 + debug_out [24] $end
$var wire 1 , debug_out [23] $end
$var wire 1 - debug_out [22] $end
$var wire 1 . debug_out [21] $end
$var wire 1 / debug_out [20] $end
$var wire 1 0 debug_out [19] $end
$var wire 1 1 debug_out [18] $end
$var wire 1 2 debug_out [17] $end
$var wire 1 3 debug_out [16] $end
$var wire 1 4 debug_out [15] $end
$var wire 1 5 debug_out [14] $end
$var wire 1 6 debug_out [13] $end
$var wire 1 7 debug_out [12] $end
$var wire 1 8 debug_out [11] $end
$var wire 1 9 debug_out [10] $end
$var wire 1 : debug_out [9] $end
$var wire 1 ; debug_out [8] $end
$var wire 1 < debug_out [7] $end
$var wire 1 = debug_out [6] $end
$var wire 1 > debug_out [5] $end
$var wire 1 ? debug_out [4] $end
$var wire 1 @ debug_out [3] $end
$var wire 1 A debug_out [2] $end
$var wire 1 B debug_out [1] $end
$var wire 1 C debug_out [0] $end
$var wire 1 D ssd_saida [27] $end
$var wire 1 E ssd_saida [26] $end
$var wire 1 F ssd_saida [25] $end
$var wire 1 G ssd_saida [24] $end
$var wire 1 H ssd_saida [23] $end
$var wire 1 I ssd_saida [22] $end
$var wire 1 J ssd_saida [21] $end
$var wire 1 K ssd_saida [20] $end
$var wire 1 L ssd_saida [19] $end
$var wire 1 M ssd_saida [18] $end
$var wire 1 N ssd_saida [17] $end
$var wire 1 O ssd_saida [16] $end
$var wire 1 P ssd_saida [15] $end
$var wire 1 Q ssd_saida [14] $end
$var wire 1 R ssd_saida [13] $end
$var wire 1 S ssd_saida [12] $end
$var wire 1 T ssd_saida [11] $end
$var wire 1 U ssd_saida [10] $end
$var wire 1 V ssd_saida [9] $end
$var wire 1 W ssd_saida [8] $end
$var wire 1 X ssd_saida [7] $end
$var wire 1 Y ssd_saida [6] $end
$var wire 1 Z ssd_saida [5] $end
$var wire 1 [ ssd_saida [4] $end
$var wire 1 \ ssd_saida [3] $end
$var wire 1 ] ssd_saida [2] $end
$var wire 1 ^ ssd_saida [1] $end
$var wire 1 _ ssd_saida [0] $end
$var wire 1 ` sampler $end
$scope module i1 $end
$var wire 1 a gnd $end
$var wire 1 b vcc $end
$var wire 1 c unknown $end
$var tri1 1 d devclrn $end
$var tri1 1 e devpor $end
$var tri1 1 f devoe $end
$var wire 1 g ssd_saida[0]~output_o $end
$var wire 1 h ssd_saida[1]~output_o $end
$var wire 1 i ssd_saida[2]~output_o $end
$var wire 1 j ssd_saida[3]~output_o $end
$var wire 1 k ssd_saida[4]~output_o $end
$var wire 1 l ssd_saida[5]~output_o $end
$var wire 1 m ssd_saida[6]~output_o $end
$var wire 1 n ssd_saida[7]~output_o $end
$var wire 1 o ssd_saida[8]~output_o $end
$var wire 1 p ssd_saida[9]~output_o $end
$var wire 1 q ssd_saida[10]~output_o $end
$var wire 1 r ssd_saida[11]~output_o $end
$var wire 1 s ssd_saida[12]~output_o $end
$var wire 1 t ssd_saida[13]~output_o $end
$var wire 1 u ssd_saida[14]~output_o $end
$var wire 1 v ssd_saida[15]~output_o $end
$var wire 1 w ssd_saida[16]~output_o $end
$var wire 1 x ssd_saida[17]~output_o $end
$var wire 1 y ssd_saida[18]~output_o $end
$var wire 1 z ssd_saida[19]~output_o $end
$var wire 1 { ssd_saida[20]~output_o $end
$var wire 1 | ssd_saida[21]~output_o $end
$var wire 1 } ssd_saida[22]~output_o $end
$var wire 1 ~ ssd_saida[23]~output_o $end
$var wire 1 !! ssd_saida[24]~output_o $end
$var wire 1 "! ssd_saida[25]~output_o $end
$var wire 1 #! ssd_saida[26]~output_o $end
$var wire 1 $! ssd_saida[27]~output_o $end
$var wire 1 %! debug_out[0]~output_o $end
$var wire 1 &! debug_out[1]~output_o $end
$var wire 1 '! debug_out[2]~output_o $end
$var wire 1 (! debug_out[3]~output_o $end
$var wire 1 )! debug_out[4]~output_o $end
$var wire 1 *! debug_out[5]~output_o $end
$var wire 1 +! debug_out[6]~output_o $end
$var wire 1 ,! debug_out[7]~output_o $end
$var wire 1 -! debug_out[8]~output_o $end
$var wire 1 .! debug_out[9]~output_o $end
$var wire 1 /! debug_out[10]~output_o $end
$var wire 1 0! debug_out[11]~output_o $end
$var wire 1 1! debug_out[12]~output_o $end
$var wire 1 2! debug_out[13]~output_o $end
$var wire 1 3! debug_out[14]~output_o $end
$var wire 1 4! debug_out[15]~output_o $end
$var wire 1 5! debug_out[16]~output_o $end
$var wire 1 6! debug_out[17]~output_o $end
$var wire 1 7! debug_out[18]~output_o $end
$var wire 1 8! debug_out[19]~output_o $end
$var wire 1 9! debug_out[20]~output_o $end
$var wire 1 :! debug_out[21]~output_o $end
$var wire 1 ;! debug_out[22]~output_o $end
$var wire 1 <! debug_out[23]~output_o $end
$var wire 1 =! debug_out[24]~output_o $end
$var wire 1 >! debug_out[25]~output_o $end
$var wire 1 ?! debug_out[26]~output_o $end
$var wire 1 @! debug_out[27]~output_o $end
$var wire 1 A! debug_out[28]~output_o $end
$var wire 1 B! debug_out[29]~output_o $end
$var wire 1 C! debug_out[30]~output_o $end
$var wire 1 D! debug_out[31]~output_o $end
$var wire 1 E! clk~input_o $end
$var wire 1 F! Add0~0_combout $end
$var wire 1 G! Add1~0_combout $end
$var wire 1 H! dec~input_o $end
$var wire 1 I! debounce_dec|counter[1]~31_combout $end
$var wire 1 J! debounce_dec|process_0~0_combout $end
$var wire 1 K! debounce_dec|LessThan0~10_combout $end
$var wire 1 L! debounce_dec|LessThan0~0_combout $end
$var wire 1 M! debounce_dec|LessThan0~1_combout $end
$var wire 1 N! debounce_dec|LessThan0~2_combout $end
$var wire 1 O! debounce_dec|LessThan0~3_combout $end
$var wire 1 P! debounce_dec|LessThan0~4_combout $end
$var wire 1 Q! debounce_dec|LessThan0~5_combout $end
$var wire 1 R! debounce_dec|LessThan0~6_combout $end
$var wire 1 S! debounce_dec|LessThan0~7_combout $end
$var wire 1 T! debounce_dec|LessThan0~8_combout $end
$var wire 1 U! debounce_dec|LessThan0~9_combout $end
$var wire 1 V! debounce_dec|counter[0]~93_combout $end
$var wire 1 W! debounce_dec|counter[1]~32 $end
$var wire 1 X! debounce_dec|counter[2]~33_combout $end
$var wire 1 Y! debounce_dec|counter[2]~34 $end
$var wire 1 Z! debounce_dec|counter[3]~35_combout $end
$var wire 1 [! debounce_dec|counter[3]~36 $end
$var wire 1 \! debounce_dec|counter[4]~37_combout $end
$var wire 1 ]! debounce_dec|counter[4]~38 $end
$var wire 1 ^! debounce_dec|counter[5]~39_combout $end
$var wire 1 _! debounce_dec|counter[5]~40 $end
$var wire 1 `! debounce_dec|counter[6]~41_combout $end
$var wire 1 a! debounce_dec|counter[6]~42 $end
$var wire 1 b! debounce_dec|counter[7]~43_combout $end
$var wire 1 c! debounce_dec|counter[7]~44 $end
$var wire 1 d! debounce_dec|counter[8]~45_combout $end
$var wire 1 e! debounce_dec|counter[8]~46 $end
$var wire 1 f! debounce_dec|counter[9]~47_combout $end
$var wire 1 g! debounce_dec|counter[9]~48 $end
$var wire 1 h! debounce_dec|counter[10]~49_combout $end
$var wire 1 i! debounce_dec|counter[10]~50 $end
$var wire 1 j! debounce_dec|counter[11]~51_combout $end
$var wire 1 k! debounce_dec|counter[11]~52 $end
$var wire 1 l! debounce_dec|counter[12]~53_combout $end
$var wire 1 m! debounce_dec|counter[12]~54 $end
$var wire 1 n! debounce_dec|counter[13]~55_combout $end
$var wire 1 o! debounce_dec|counter[13]~56 $end
$var wire 1 p! debounce_dec|counter[14]~57_combout $end
$var wire 1 q! debounce_dec|counter[14]~58 $end
$var wire 1 r! debounce_dec|counter[15]~59_combout $end
$var wire 1 s! debounce_dec|counter[15]~60 $end
$var wire 1 t! debounce_dec|counter[16]~61_combout $end
$var wire 1 u! debounce_dec|counter[16]~62 $end
$var wire 1 v! debounce_dec|counter[17]~63_combout $end
$var wire 1 w! debounce_dec|counter[17]~64 $end
$var wire 1 x! debounce_dec|counter[18]~65_combout $end
$var wire 1 y! debounce_dec|counter[18]~66 $end
$var wire 1 z! debounce_dec|counter[19]~67_combout $end
$var wire 1 {! debounce_dec|counter[19]~68 $end
$var wire 1 |! debounce_dec|counter[20]~69_combout $end
$var wire 1 }! debounce_dec|counter[20]~70 $end
$var wire 1 ~! debounce_dec|counter[21]~71_combout $end
$var wire 1 !" debounce_dec|counter[21]~72 $end
$var wire 1 "" debounce_dec|counter[22]~73_combout $end
$var wire 1 #" debounce_dec|counter[22]~74 $end
$var wire 1 $" debounce_dec|counter[23]~75_combout $end
$var wire 1 %" debounce_dec|counter[23]~76 $end
$var wire 1 &" debounce_dec|counter[24]~77_combout $end
$var wire 1 '" debounce_dec|counter[24]~78 $end
$var wire 1 (" debounce_dec|counter[25]~79_combout $end
$var wire 1 )" debounce_dec|counter[25]~80 $end
$var wire 1 *" debounce_dec|counter[26]~81_combout $end
$var wire 1 +" debounce_dec|counter[26]~82 $end
$var wire 1 ," debounce_dec|counter[27]~83_combout $end
$var wire 1 -" debounce_dec|counter[27]~84 $end
$var wire 1 ." debounce_dec|counter[28]~85_combout $end
$var wire 1 /" debounce_dec|counter[28]~86 $end
$var wire 1 0" debounce_dec|counter[29]~87_combout $end
$var wire 1 1" debounce_dec|counter[29]~88 $end
$var wire 1 2" debounce_dec|counter[30]~89_combout $end
$var wire 1 3" debounce_dec|counter[30]~90 $end
$var wire 1 4" debounce_dec|counter[31]~91_combout $end
$var wire 1 5" debounce_dec|saida~0_combout $end
$var wire 1 6" debounce_dec|saida~q $end
$var wire 1 7" inc~input_o $end
$var wire 1 8" debounce_inc|counter[0]~93_combout $end
$var wire 1 9" debounce_inc|process_0~0_combout $end
$var wire 1 :" debounce_inc|counter[1]~31_combout $end
$var wire 1 ;" debounce_inc|counter[1]~32 $end
$var wire 1 <" debounce_inc|counter[2]~33_combout $end
$var wire 1 =" debounce_inc|counter[2]~34 $end
$var wire 1 >" debounce_inc|counter[3]~35_combout $end
$var wire 1 ?" debounce_inc|counter[3]~36 $end
$var wire 1 @" debounce_inc|counter[4]~37_combout $end
$var wire 1 A" debounce_inc|counter[4]~38 $end
$var wire 1 B" debounce_inc|counter[5]~39_combout $end
$var wire 1 C" debounce_inc|counter[5]~40 $end
$var wire 1 D" debounce_inc|counter[6]~41_combout $end
$var wire 1 E" debounce_inc|counter[6]~42 $end
$var wire 1 F" debounce_inc|counter[7]~43_combout $end
$var wire 1 G" debounce_inc|counter[7]~44 $end
$var wire 1 H" debounce_inc|counter[8]~45_combout $end
$var wire 1 I" debounce_inc|counter[8]~46 $end
$var wire 1 J" debounce_inc|counter[9]~47_combout $end
$var wire 1 K" debounce_inc|counter[9]~48 $end
$var wire 1 L" debounce_inc|counter[10]~49_combout $end
$var wire 1 M" debounce_inc|counter[10]~50 $end
$var wire 1 N" debounce_inc|counter[11]~51_combout $end
$var wire 1 O" debounce_inc|counter[11]~52 $end
$var wire 1 P" debounce_inc|counter[12]~53_combout $end
$var wire 1 Q" debounce_inc|counter[12]~54 $end
$var wire 1 R" debounce_inc|counter[13]~55_combout $end
$var wire 1 S" debounce_inc|counter[13]~56 $end
$var wire 1 T" debounce_inc|counter[14]~57_combout $end
$var wire 1 U" debounce_inc|counter[14]~58 $end
$var wire 1 V" debounce_inc|counter[15]~59_combout $end
$var wire 1 W" debounce_inc|counter[15]~60 $end
$var wire 1 X" debounce_inc|counter[16]~61_combout $end
$var wire 1 Y" debounce_inc|counter[16]~62 $end
$var wire 1 Z" debounce_inc|counter[17]~63_combout $end
$var wire 1 [" debounce_inc|counter[17]~64 $end
$var wire 1 \" debounce_inc|counter[18]~65_combout $end
$var wire 1 ]" debounce_inc|counter[18]~66 $end
$var wire 1 ^" debounce_inc|counter[19]~67_combout $end
$var wire 1 _" debounce_inc|counter[19]~68 $end
$var wire 1 `" debounce_inc|counter[20]~69_combout $end
$var wire 1 a" debounce_inc|counter[20]~70 $end
$var wire 1 b" debounce_inc|counter[21]~71_combout $end
$var wire 1 c" debounce_inc|counter[21]~72 $end
$var wire 1 d" debounce_inc|counter[22]~73_combout $end
$var wire 1 e" debounce_inc|counter[22]~74 $end
$var wire 1 f" debounce_inc|counter[23]~75_combout $end
$var wire 1 g" debounce_inc|counter[23]~76 $end
$var wire 1 h" debounce_inc|counter[24]~77_combout $end
$var wire 1 i" debounce_inc|counter[24]~78 $end
$var wire 1 j" debounce_inc|counter[25]~79_combout $end
$var wire 1 k" debounce_inc|counter[25]~80 $end
$var wire 1 l" debounce_inc|counter[26]~81_combout $end
$var wire 1 m" debounce_inc|counter[26]~82 $end
$var wire 1 n" debounce_inc|counter[27]~83_combout $end
$var wire 1 o" debounce_inc|counter[27]~84 $end
$var wire 1 p" debounce_inc|counter[28]~85_combout $end
$var wire 1 q" debounce_inc|counter[28]~86 $end
$var wire 1 r" debounce_inc|counter[29]~87_combout $end
$var wire 1 s" debounce_inc|counter[29]~88 $end
$var wire 1 t" debounce_inc|counter[30]~89_combout $end
$var wire 1 u" debounce_inc|counter[30]~90 $end
$var wire 1 v" debounce_inc|counter[31]~91_combout $end
$var wire 1 w" debounce_inc|LessThan0~0_combout $end
$var wire 1 x" debounce_inc|LessThan0~1_combout $end
$var wire 1 y" debounce_inc|LessThan0~2_combout $end
$var wire 1 z" debounce_inc|LessThan0~3_combout $end
$var wire 1 {" debounce_inc|LessThan0~4_combout $end
$var wire 1 |" debounce_inc|LessThan0~5_combout $end
$var wire 1 }" debounce_inc|LessThan0~6_combout $end
$var wire 1 ~" debounce_inc|LessThan0~7_combout $end
$var wire 1 !# debounce_inc|LessThan0~8_combout $end
$var wire 1 "# debounce_inc|LessThan0~9_combout $end
$var wire 1 ## debounce_inc|LessThan0~10_combout $end
$var wire 1 $# debounce_inc|saida~0_combout $end
$var wire 1 %# debounce_inc|saida~q $end
$var wire 1 &# apertado~0_combout $end
$var wire 1 '# apertado~q $end
$var wire 1 (# numero[1]~2_combout $end
$var wire 1 )# Add1~1 $end
$var wire 1 *# Add1~3 $end
$var wire 1 +# Add1~5 $end
$var wire 1 ,# Add1~7 $end
$var wire 1 -# Add1~8_combout $end
$var wire 1 .# numero~9_combout $end
$var wire 1 /# Add0~7 $end
$var wire 1 0# Add0~8_combout $end
$var wire 1 1# numero[1]~3_combout $end
$var wire 1 2# numero[1]~4_combout $end
$var wire 1 3# numero~8_combout $end
$var wire 1 4# Add0~1 $end
$var wire 1 5# Add0~2_combout $end
$var wire 1 6# Add1~2_combout $end
$var wire 1 7# numero~7_combout $end
$var wire 1 8# Add0~3 $end
$var wire 1 9# Add0~5 $end
$var wire 1 :# Add0~6_combout $end
$var wire 1 ;# Add1~6_combout $end
$var wire 1 <# numero~6_combout $end
$var wire 1 =# numero~0_combout $end
$var wire 1 ># numero~1_combout $end
$var wire 1 ?# Add0~4_combout $end
$var wire 1 @# Add1~4_combout $end
$var wire 1 A# numero~5_combout $end
$var wire 1 B# ssd_saida~0_combout $end
$var wire 1 C# ssd_saida~1_combout $end
$var wire 1 D# ssd_saida~2_combout $end
$var wire 1 E# ssd_saida~3_combout $end
$var wire 1 F# ssd_saida~4_combout $end
$var wire 1 G# ssd_saida~5_combout $end
$var wire 1 H# ssd_saida~6_combout $end
$var wire 1 I# numero [4] $end
$var wire 1 J# numero [3] $end
$var wire 1 K# numero [2] $end
$var wire 1 L# numero [1] $end
$var wire 1 M# numero [0] $end
$var wire 1 N# debounce_dec|counter [31] $end
$var wire 1 O# debounce_dec|counter [30] $end
$var wire 1 P# debounce_dec|counter [29] $end
$var wire 1 Q# debounce_dec|counter [28] $end
$var wire 1 R# debounce_dec|counter [27] $end
$var wire 1 S# debounce_dec|counter [26] $end
$var wire 1 T# debounce_dec|counter [25] $end
$var wire 1 U# debounce_dec|counter [24] $end
$var wire 1 V# debounce_dec|counter [23] $end
$var wire 1 W# debounce_dec|counter [22] $end
$var wire 1 X# debounce_dec|counter [21] $end
$var wire 1 Y# debounce_dec|counter [20] $end
$var wire 1 Z# debounce_dec|counter [19] $end
$var wire 1 [# debounce_dec|counter [18] $end
$var wire 1 \# debounce_dec|counter [17] $end
$var wire 1 ]# debounce_dec|counter [16] $end
$var wire 1 ^# debounce_dec|counter [15] $end
$var wire 1 _# debounce_dec|counter [14] $end
$var wire 1 `# debounce_dec|counter [13] $end
$var wire 1 a# debounce_dec|counter [12] $end
$var wire 1 b# debounce_dec|counter [11] $end
$var wire 1 c# debounce_dec|counter [10] $end
$var wire 1 d# debounce_dec|counter [9] $end
$var wire 1 e# debounce_dec|counter [8] $end
$var wire 1 f# debounce_dec|counter [7] $end
$var wire 1 g# debounce_dec|counter [6] $end
$var wire 1 h# debounce_dec|counter [5] $end
$var wire 1 i# debounce_dec|counter [4] $end
$var wire 1 j# debounce_dec|counter [3] $end
$var wire 1 k# debounce_dec|counter [2] $end
$var wire 1 l# debounce_dec|counter [1] $end
$var wire 1 m# debounce_dec|counter [0] $end
$var wire 1 n# debounce_inc|counter [31] $end
$var wire 1 o# debounce_inc|counter [30] $end
$var wire 1 p# debounce_inc|counter [29] $end
$var wire 1 q# debounce_inc|counter [28] $end
$var wire 1 r# debounce_inc|counter [27] $end
$var wire 1 s# debounce_inc|counter [26] $end
$var wire 1 t# debounce_inc|counter [25] $end
$var wire 1 u# debounce_inc|counter [24] $end
$var wire 1 v# debounce_inc|counter [23] $end
$var wire 1 w# debounce_inc|counter [22] $end
$var wire 1 x# debounce_inc|counter [21] $end
$var wire 1 y# debounce_inc|counter [20] $end
$var wire 1 z# debounce_inc|counter [19] $end
$var wire 1 {# debounce_inc|counter [18] $end
$var wire 1 |# debounce_inc|counter [17] $end
$var wire 1 }# debounce_inc|counter [16] $end
$var wire 1 ~# debounce_inc|counter [15] $end
$var wire 1 !$ debounce_inc|counter [14] $end
$var wire 1 "$ debounce_inc|counter [13] $end
$var wire 1 #$ debounce_inc|counter [12] $end
$var wire 1 $$ debounce_inc|counter [11] $end
$var wire 1 %$ debounce_inc|counter [10] $end
$var wire 1 &$ debounce_inc|counter [9] $end
$var wire 1 '$ debounce_inc|counter [8] $end
$var wire 1 ($ debounce_inc|counter [7] $end
$var wire 1 )$ debounce_inc|counter [6] $end
$var wire 1 *$ debounce_inc|counter [5] $end
$var wire 1 +$ debounce_inc|counter [4] $end
$var wire 1 ,$ debounce_inc|counter [3] $end
$var wire 1 -$ debounce_inc|counter [2] $end
$var wire 1 .$ debounce_inc|counter [1] $end
$var wire 1 /$ debounce_inc|counter [0] $end
$upscope $end
$upscope $end
$enddefinitions $end
#0
$dumpvars
0!
1"
1#
1C
0B
0A
0@
0?
0>
0=
0<
0;
0:
09
08
07
06
05
04
03
02
01
00
0/
0.
0-
0,
0+
0*
0)
0(
0'
0&
0%
0$
1_
0^
0]
1\
1[
1Z
1Y
0X
0W
0V
0U
0T
0S
1R
0Q
0P
0O
0N
0M
0L
1K
0J
0I
0H
0G
0F
0E
1D
x`
0a
1b
xc
1d
1e
1f
1g
0h
0i
1j
1k
1l
1m
0n
0o
0p
0q
0r
0s
1t
0u
0v
0w
0x
0y
0z
1{
0|
0}
0~
0!!
0"!
0#!
1$!
1%!
0&!
0'!
0(!
0)!
0*!
0+!
0,!
0-!
0.!
0/!
00!
01!
02!
03!
04!
05!
06!
07!
08!
09!
0:!
0;!
0<!
0=!
0>!
0?!
0@!
0A!
0B!
0C!
0D!
0E!
1F!
0G!
1H!
0I!
0J!
1K!
1L!
1M!
1N!
1O!
1P!
1Q!
1R!
1S!
1T!
1U!
1V!
0W!
0X!
1Y!
0Z!
0[!
0\!
1]!
0^!
0_!
0`!
1a!
0b!
0c!
0d!
1e!
0f!
0g!
0h!
1i!
0j!
0k!
0l!
1m!
0n!
0o!
0p!
1q!
0r!
0s!
0t!
1u!
0v!
0w!
0x!
1y!
0z!
0{!
0|!
1}!
0~!
0!"
0""
1#"
0$"
0%"
0&"
1'"
0("
0)"
0*"
1+"
0,"
0-"
0."
1/"
00"
01"
02"
13"
04"
05"
06"
17"
18"
09"
0:"
0;"
0<"
1="
0>"
0?"
0@"
1A"
0B"
0C"
0D"
1E"
0F"
0G"
0H"
1I"
0J"
0K"
0L"
1M"
0N"
0O"
0P"
1Q"
0R"
0S"
0T"
1U"
0V"
0W"
0X"
1Y"
0Z"
0["
0\"
1]"
0^"
0_"
0`"
1a"
0b"
0c"
0d"
1e"
0f"
0g"
0h"
1i"
0j"
0k"
0l"
1m"
0n"
0o"
0p"
1q"
0r"
0s"
0t"
1u"
0v"
1w"
1x"
1y"
1z"
1{"
1|"
1}"
1~"
1!#
1"#
1##
0$#
0%#
1&#
0'#
1(#
1)#
1*#
0+#
1,#
0-#
0.#
1/#
00#
11#
12#
03#
04#
05#
16#
07#
18#
09#
0:#
0;#
0<#
1=#
1>#
0?#
0@#
0A#
1B#
0C#
0D#
1E#
1F#
1G#
0H#
0M#
0L#
0K#
0J#
0I#
0m#
0l#
0k#
0j#
0i#
0h#
0g#
0f#
0e#
0d#
0c#
0b#
0a#
0`#
0_#
0^#
0]#
0\#
0[#
0Z#
0Y#
0X#
0W#
0V#
0U#
0T#
0S#
0R#
0Q#
0P#
0O#
0N#
0/$
0.$
0-$
0,$
0+$
0*$
0)$
0($
0'$
0&$
0%$
0$$
0#$
0"$
0!$
0~#
0}#
0|#
0{#
0z#
0y#
0x#
0w#
0v#
0u#
0t#
0s#
0r#
0q#
0p#
0o#
0n#
$end
#1250
1!
1E!
0`
1'#
1/$
1m#
0w"
1:"
08"
0V!
0L!
1I!
0{"
0P!
0##
0U!
1$#
18"
15"
1V!
0K!
#2500
0!
0E!
1`
#3750
1!
1E!
0`
1%#
16"
0&#
19"
1J!
0/$
0m#
1w"
0:"
08"
0V!
1L!
0I!
1{"
1P!
1##
1U!
18"
1V!
1K!
#5000
0#
0!
07"
0E!
1`
09"
#6250
1!
1E!
0`
0'#
1/$
0w"
1:"
08"
0{"
0##
0$#
18"
#7500
0!
0E!
1`
#8750
1!
1E!
0`
0%#
0(#
1&#
19"
02#
17#
13#
0/$
1w"
0:"
08"
1{"
1##
18"
#10000
1#
0!
17"
0E!
1`
09"
#11250
1!
1E!
0`
1M#
1'#
1/$
1L#
1H#
0F!
1(#
0w"
1:"
08"
0=#
15#
0%!
1&!
0C
1B
0F#
0E#
1D#
0B#
0)#
1G!
12#
0{"
0*#
06#
0m
0k
0j
1i
0g
0Y
0[
0\
1]
0_
1*#
16#
0##
1@#
0@#
1$#
18"
#12500
0!
0E!
1`
#13750
1!
1E!
0`
1%#
0&#
19"
0/$
1w"
0:"
08"
1{"
1##
18"
#15000
0#
0!
07"
0E!
1`
09"
#16250
1!
1E!
0`
0'#
1/$
0w"
1:"
08"
0{"
0##
0$#
18"
#17500
0!
0E!
1`
#18750
1!
1E!
0`
0%#
0(#
1&#
19"
02#
03#
0/$
1w"
0:"
08"
1{"
1##
18"
#20000
1#
0!
17"
0E!
1`
09"
#21250
1!
1E!
0`
0M#
1'#
1/$
1F!
1(#
0w"
1:"
08"
1%!
1C
1F#
0D#
1)#
0G!
12#
0{"
1k
0i
1[
0]
0*#
06#
0##
1@#
1$#
18"
#22500
0!
0E!
1`
#23750
1!
1E!
0`
1%#
0&#
19"
0/$
1w"
0:"
08"
1{"
1##
18"
#25000
0#
0!
07"
0E!
1`
09"
#26250
1!
1E!
0`
0'#
1/$
0w"
1:"
08"
0{"
0##
0$#
18"
#27500
0!
0E!
1`
#28750
1!
1E!
0`
0%#
0(#
1&#
19"
02#
1A#
07#
13#
0/$
1w"
0:"
08"
1{"
1##
18"
#30000
1#
0!
17"
0E!
1`
09"
#31250
1!
1E!
0`
1M#
1'#
1/$
1K#
0L#
0F!
1(#
0w"
1:"
08"
1?#
05#
0%!
1'!
0&!
0C
1A
0B
0G#
1E#
1B#
0)#
1G!
12#
0{"
1+#
0@#
1*#
16#
0l
1j
1g
0Z
1\
1_
06#
0##
1;#
0+#
1@#
1$#
18"
0;#
#32500
0!
0E!
1`
#33750
1!
1E!
0`
1%#
0&#
19"
0/$
1w"
0:"
08"
1{"
1##
18"
#35000
0#
0!
07"
0E!
1`
09"
#36250
1!
1E!
0`
0'#
1/$
0w"
1:"
08"
0{"
0##
0$#
18"
#37500
0!
0E!
1`
#38750
1!
1E!
0`
0%#
0(#
1&#
19"
02#
03#
0/$
1w"
0:"
08"
1{"
1##
18"
#40000
1#
0!
17"
0E!
1`
09"
#41250
1!
1E!
0`
0M#
1'#
1/$
1F!
1(#
0w"
1:"
08"
1%!
1C
0E#
1C#
0B#
1)#
0G!
12#
0{"
0j
1h
0g
0\
1^
0_
16#
0##
1$#
18"
#42500
0!
0E!
1`
#43750
1!
1E!
0`
1%#
0&#
19"
0/$
1w"
0:"
08"
1{"
1##
18"
#45000
0#
0!
07"
0E!
1`
09"
#46250
1!
1E!
0`
0'#
1/$
0w"
1:"
08"
0{"
0##
0$#
18"
#47500
0!
0E!
1`
#48750
1!
1E!
0`
0%#
0(#
1&#
19"
02#
17#
13#
0/$
1w"
0:"
08"
1{"
1##
18"
#50000
1#
0!
17"
0E!
1`
09"
#51250
1!
1E!
0`
1M#
1'#
1/$
1L#
0F!
1(#
0w"
1:"
08"
15#
0%!
1&!
0C
1B
0F#
0)#
1G!
12#
0{"
0*#
06#
0k
0[
1*#
16#
0##
1+#
0@#
0+#
1@#
1$#
18"
1;#
0;#
#52500
0!
0E!
1`
#53750
1!
1E!
0`
1%#
0&#
19"
0/$
1w"
0:"
08"
1{"
1##
18"
#55000
0#
0!
07"
0E!
1`
09"
#56250
1!
1E!
0`
0'#
1/$
0w"
1:"
08"
0{"
0##
0$#
18"
#57500
0!
0E!
1`
#58750
1!
1E!
0`
0%#
0(#
1&#
19"
02#
03#
0/$
1w"
0:"
08"
1{"
1##
18"
#60000
1#
0!
17"
0E!
1`
09"
#61250
1!
1E!
0`
0M#
1'#
1/$
0H#
1F!
1(#
0w"
1:"
08"
1%!
1C
1G#
1F#
1E#
0C#
1)#
0G!
12#
0{"
1m
1l
1k
1j
0h
1Y
1Z
1[
1\
0^
0*#
06#
0##
1+#
0@#
1$#
18"
1;#
#62500
0!
0E!
1`
#63750
1!
1E!
0`
1%#
0&#
19"
0/$
1w"
0:"
08"
1{"
1##
18"
#65000
0#
0!
07"
0E!
1`
09"
#66250
1!
1E!
0`
0'#
1/$
0w"
1:"
08"
0{"
0##
0$#
18"
#67500
0!
0E!
1`
#68750
1!
1E!
0`
0%#
0(#
1&#
19"
02#
0A#
1<#
07#
13#
0/$
1w"
0:"
08"
1{"
1##
18"
#70000
1#
0!
17"
0E!
1`
09"
#71250
1!
1E!
0`
1M#
1'#
1/$
0K#
1J#
0L#
1H#
0F!
1(#
0w"
1:"
08"
0?#
1:#
05#
0%!
0'!
1(!
0&!
0C
0A
1@
0B
0G#
0F#
0E#
01#
0)#
1G!
12#
0{"
0+#
1@#
0,#
0;#
1*#
16#
0m
0l
0k
0j
0Y
0Z
0[
0\
06#
0##
1,#
1;#
1-#
0@#
1$#
18"
0-#
#72500
0!
0E!
1`
#73750
1!
1E!
0`
1%#
0&#
19"
0/$
1w"
0:"
08"
1{"
1##
18"
#75000
0#
0!
07"
0E!
1`
09"
#76250
1!
1E!
0`
0'#
1/$
0w"
1:"
08"
0{"
0##
0$#
18"
#77500
0!
0E!
1`
#78750
1!
1E!
0`
0%#
0(#
1&#
19"
02#
03#
0/$
1w"
0:"
08"
1{"
1##
18"
#80000
1#
0!
17"
0E!
1`
09"
#81250
1!
1E!
0`
0M#
1'#
1/$
1F!
1(#
0w"
1:"
08"
1%!
1C
1F#
11#
1)#
0G!
12#
0{"
1k
1[
16#
0##
1$#
18"
#82500
0!
0E!
1`
#83750
1!
1E!
0`
1%#
0&#
19"
0/$
1w"
0:"
08"
1{"
1##
18"
#85000
0#
0!
07"
0E!
1`
09"
#86250
1!
1E!
0`
0'#
1/$
0w"
1:"
08"
0{"
0##
0$#
18"
#87500
0!
0E!
1`
#88750
1!
1E!
0`
0%#
0(#
1&#
19"
02#
17#
13#
0/$
1w"
0:"
08"
1{"
1##
18"
#90000
1#
0!
17"
0E!
1`
09"
#91250
1!
1E!
0`
1M#
1'#
1/$
1L#
0F!
1(#
0w"
1:"
08"
15#
0%!
1&!
0C
1B
0F#
1E#
0)#
1G!
12#
0{"
0*#
06#
0k
1j
0[
1\
1*#
16#
0##
1@#
0@#
1$#
18"
#92500
0!
0E!
1`
#93750
1!
1E!
0`
1%#
0&#
19"
0/$
1w"
0:"
08"
1{"
1##
18"
#95000
0#
0!
07"
0E!
1`
09"
#96250
1!
1E!
0`
0'#
1/$
0w"
1:"
08"
0{"
0##
0$#
18"
#97500
0!
0E!
1`
#98750
1!
1E!
0`
0%#
0(#
1&#
19"
02#
03#
0/$
1w"
0:"
08"
1{"
1##
18"
#100000
1#
0!
17"
0E!
1`
09"
#101250
1!
1E!
0`
0M#
1'#
1/$
1F!
1(#
0w"
1:"
08"
1%!
1C
0E#
1C#
1B#
1)#
0G!
12#
0{"
0j
1h
1g
0\
1^
1_
0*#
06#
0##
1@#
1$#
18"
#102500
0!
0E!
1`
#103750
1!
1E!
0`
1%#
0&#
19"
0/$
1w"
0:"
08"
1{"
1##
18"
